,Year,Month,DayofMonth,DayOfWeek,DepTime,CRSDepTime,ArrTime,CRSArrTime,UniqueCarrier,FlightNum,TailNum,ActualElapsedTime,CRSElapsedTime,AirTime,ArrDelay,DepDelay,Origin,Dest,Distance,TaxiIn,TaxiOut,Cancelled,CancellationCode,Diverted,CarrierDelay,WeatherDelay,NASDelay,SecurityDelay,LateAircraftDelay
0,2008,1,3,4,2003,1955,2211,2225,WN,335,N712SW,128,150,116,-14,8,IAD,TPA,810,4,8,0,N,0,,,,,
1,2008,1,3,4,754,735,1002,1000,WN,3231,N772SW,128,145,113,2,19,IAD,TPA,810,5,10,0,N,0,,,,,
2,2008,1,3,4,628,620,804,750,WN,448,N428WN,96,90,76,14,8,IND,BWI,515,3,17,0,N,0,,,,,
4,2008,1,3,4,1829,1755,1959,1925,WN,3920,N464WN,90,90,77,34,34,IND,BWI,515,3,10,0,N,0,2,0,0,0,32
5,2008,1,3,4,1940,1915,2121,2110,WN,378,N726SW,101,115,87,11,25,IND,JAX,688,4,10,0,N,0,,,,,
6,2008,1,3,4,1937,1830,2037,1940,WN,509,N763SW,240,250,230,57,67,IND,LAS,1591,3,7,0,N,0,10,0,0,0,47
10,2008,1,3,4,706,700,916,915,WN,100,N690SW,130,135,106,1,6,IND,MCO,828,5,19,0,N,0,,,,,
11,2008,1,3,4,1644,1510,1845,1725,WN,1333,N334SW,121,135,107,80,94,IND,MCO,828,6,8,0,N,0,8,0,0,0,72
15,2008,1,3,4,1029,1020,1021,1010,WN,2272,N263WN,52,50,37,11,9,IND,MDW,162,6,9,0,N,0,,,,,
16,2008,1,3,4,1452,1425,1640,1625,WN,675,N286WN,228,240,213,15,27,IND,PHX,1489,7,8,0,N,0,3,0,0,0,12
17,2008,1,3,4,754,745,940,955,WN,1144,N778SW,226,250,205,-15,9,IND,PHX,1489,5,16,0,N,0,,,,,
18,2008,1,3,4,1323,1255,1526,1510,WN,4,N674AA,123,135,110,16,28,IND,TPA,838,4,9,0,N,0,0,0,0,0,16
19,2008,1,3,4,1416,1325,1512,1435,WN,54,N643SW,56,70,49,37,51,ISP,BWI,220,2,5,0,N,0,12,0,0,0,25
21,2008,1,3,4,1657,1625,1754,1735,WN,623,N724SW,57,70,47,19,32,ISP,BWI,220,5,5,0,N,0,7,0,0,0,12
22,2008,1,3,4,1900,1840,1956,1950,WN,717,N786SW,56,70,49,6,20,ISP,BWI,220,2,5,0,N,0,,,,,
23,2008,1,3,4,1039,1030,1133,1140,WN,1244,N714CB,54,70,47,-7,9,ISP,BWI,220,2,5,0,N,0,,,,,
25,2008,1,3,4,1520,1455,1619,1605,WN,2553,N394SW,59,70,50,14,25,ISP,BWI,220,2,7,0,N,0,,,,,
26,2008,1,3,4,1422,1255,1657,1610,WN,188,N215WN,155,195,143,47,87,ISP,FLL,1093,6,6,0,N,0,40,0,0,0,7
27,2008,1,3,4,1954,1925,2239,2235,WN,1754,N243WN,165,190,155,4,29,ISP,FLL,1093,3,7,0,N,0,,,,,
30,2008,1,3,4,2107,1945,2334,2230,WN,362,N798SW,147,165,134,64,82,ISP,MCO,972,6,7,0,N,0,5,0,0,0,59
33,2008,1,3,4,1312,1300,1546,1550,WN,1397,N247WN,154,170,140,-4,12,ISP,MCO,972,7,7,0,N,0,,,,,
34,2008,1,3,4,1449,1430,1715,1720,WN,3398,N707SA,146,170,134,-5,19,ISP,MCO,972,6,6,0,N,0,,,,,
35,2008,1,3,4,1634,1555,1859,1845,WN,3480,N443WN,145,170,134,14,39,ISP,MCO,972,5,6,0,N,0,,,,,
37,2008,1,3,4,1812,1650,1927,1815,WN,422,N779SW,135,145,118,72,82,ISP,MDW,765,6,11,0,N,0,3,0,0,0,69
38,2008,1,3,4,1127,1105,1235,1230,WN,1837,N704SW,128,145,114,5,22,ISP,MDW,765,9,5,0,N,0,,,,,
39,2008,1,3,4,1424,1355,1531,1520,WN,2871,N709SW,127,145,113,11,29,ISP,MDW,765,8,6,0,N,0,,,,,
40,2008,1,3,4,1326,1230,1559,1530,WN,1056,N459WN,153,180,143,29,56,ISP,PBI,1052,5,5,0,N,0,0,0,0,0,29
41,2008,1,3,4,1749,1725,2019,2030,WN,2175,N621SW,150,185,138,-11,24,ISP,PBI,1052,4,8,0,N,0,,,,,
42,2008,1,3,4,726,720,958,1020,WN,3319,N206WN,152,180,140,-22,6,ISP,PBI,1052,4,8,0,N,0,,,,,
43,2008,1,3,4,646,640,929,955,WN,3667,N280WN,163,195,151,-26,6,ISP,RSW,1101,3,9,0,N,0,,,,,
44,2008,1,3,4,1153,1140,1428,1440,WN,2006,N241WN,155,180,143,-12,13,ISP,TPA,1034,4,8,0,N,0,,,,,
45,2008,1,3,4,1528,1510,1802,1810,WN,3858,N200WN,154,180,144,-8,18,ISP,TPA,1034,4,6,0,N,0,,,,,
48,2008,1,3,4,1450,1435,1806,1745,WN,3244,N475WN,136,130,121,21,15,JAN,BWI,888,7,8,0,N,0,0,0,6,0,15
49,2008,1,3,4,2245,1730,2354,1850,WN,186,N792SW,69,80,59,304,315,JAN,HOU,359,3,7,0,N,0,282,0,0,0,22
52,2008,1,3,4,2025,1940,2135,2100,WN,3154,N252WN,70,80,60,35,45,JAN,HOU,359,3,7,0,N,0,26,0,0,0,9
53,2008,1,3,4,1038,945,1314,1225,WN,1035,N346SW,96,100,81,49,53,JAN,MCO,587,8,7,0,N,0,7,0,0,0,42
54,2008,1,3,4,1900,1850,2123,2045,WN,205,N299WN,143,115,97,38,10,JAN,MDW,666,40,6,0,N,0,1,0,28,0,9
56,2008,1,3,4,948,925,959,940,WN,3430,N487WN,71,75,59,19,23,JAX,BHM,365,3,9,0,N,0,0,0,0,0,19
57,2008,1,3,4,646,620,725,655,WN,1580,N243WN,99,95,77,30,26,JAX,BNA,484,6,16,0,N,0,26,0,4,0,0
58,2008,1,3,4,1110,1040,1136,1110,WN,2195,N479WN,86,90,72,26,30,JAX,BNA,484,5,9,0,N,0,0,0,0,10,16
64,2008,1,3,4,2139,2130,2244,2240,WN,378,N726SW,65,70,54,4,9,JAX,FLL,318,3,8,0,N,0,,,,,
69,2008,1,3,4,1738,1730,1841,1840,WN,3948,N467WN,63,70,49,1,8,JAX,FLL,318,6,8,0,N,0,,,,,
70,2008,1,3,4,1813,1735,1936,1905,WN,54,N643SW,143,150,125,31,38,JAX,HOU,816,6,12,0,N,0,11,0,0,0,20
71,2008,1,3,4,802,750,1001,955,WN,2272,N263WN,119,125,104,6,12,JAX,IND,688,7,8,0,N,0,,,,,
74,2008,1,3,4,1734,1650,1941,1905,WN,23,N521SW,127,135,113,36,44,JAX,PHL,742,4,10,0,N,0,3,0,0,0,33
75,2008,1,3,4,712,700,926,915,WN,1232,N663SW,134,135,120,11,12,JAX,PHL,742,5,9,0,N,0,,,,,
76,2008,1,3,4,1318,1310,1410,1400,WN,977,N376SW,52,50,39,10,8,JAX,TPA,180,4,9,0,N,0,,,,,
77,2008,1,3,4,958,900,1052,950,WN,1574,N791SW,54,50,36,62,58,JAX,TPA,180,4,14,0,N,0,0,0,4,0,58
78,2008,1,3,4,1859,1850,1950,1945,WN,2019,N392SW,51,55,38,5,9,JAX,TPA,180,4,9,0,N,0,,,,,
79,2008,1,3,4,1538,1445,1753,1710,WN,500,N799SW,75,85,60,43,53,LAS,ABQ,487,4,11,0,N,0,15,0,0,0,28
81,2008,1,3,4,2248,2125,102,2345,WN,890,N618WN,74,80,60,77,83,LAS,ABQ,487,4,10,0,N,0,7,0,0,0,70
82,2008,1,3,4,1327,1230,1550,1500,WN,1171,N682SW,83,90,65,50,57,LAS,ABQ,487,3,15,0,N,0,50,0,0,0,0
84,2008,1,3,4,1614,1600,1833,1825,WN,1925,N509SW,79,85,60,8,14,LAS,ABQ,487,4,15,0,N,0,,,,,
86,2008,1,3,4,1832,1655,148,30,WN,302,N473WN,256,275,243,78,97,LAS,ALB,2237,3,10,0,N,0,8,0,0,0,70
87,2008,1,3,4,1229,1155,1633,1555,WN,1079,N351SW,124,120,91,38,34,LAS,AMA,758,5,28,0,N,0,3,0,4,0,31
88,2008,1,3,4,1256,1240,1724,1720,WN,155,N238WN,148,160,131,4,16,LAS,AUS,1090,3,14,0,N,0,,,,,
89,2008,1,3,4,2118,2015,144,50,WN,2021,N499WN,146,155,127,54,63,LAS,AUS,1090,5,14,0,N,0,23,0,0,0,31
90,2008,1,3,4,905,850,1334,1330,WN,3222,N309SW,149,160,135,4,15,LAS,AUS,1090,4,10,0,N,0,,,,,
91,2008,1,3,4,1739,1640,114,25,WN,1018,N245WN,275,285,253,49,59,LAS,BDL,2298,9,13,0,N,0,19,0,0,0,30
94,2008,1,3,4,1325,1240,1841,1810,WN,419,N275WN,196,210,178,31,45,LAS,BNA,1588,6,12,0,N,0,2,0,0,0,29
95,2008,1,3,4,1506,1440,2030,2010,WN,2032,N271WN,204,210,183,20,26,LAS,BNA,1588,6,15,0,N,0,18,0,0,0,2
96,2008,1,3,4,2039,1930,155,55,WN,3940,N434WN,196,205,177,60,69,LAS,BNA,1588,5,14,0,N,0,0,0,22,0,38
98,2008,1,3,4,1611,1535,1849,1825,WN,538,N619SW,98,110,73,24,36,LAS,BOI,520,3,22,0,N,0,9,0,0,0,15
99,2008,1,3,4,1824,1715,117,25,WN,2383,N290WN,233,250,221,52,69,LAS,BUF,1987,2,10,0,N,0,48,0,0,0,4
101,2008,1,3,4,2118,2015,2224,2115,WN,219,N383SW,66,60,46,69,63,LAS,BUR,223,3,17,0,N,0,17,0,6,0,46
102,2008,1,3,4,1818,1740,1916,1840,WN,391,N608SW,58,60,46,36,38,LAS,BUR,223,2,10,0,N,0,20,0,0,0,16
104,2008,1,3,4,2146,2055,2250,2155,WN,815,N626SW,64,60,48,55,51,LAS,BUR,223,3,13,0,N,0,4,0,4,0,47
105,2008,1,3,4,2241,1910,2340,2010,WN,1072,N369SW,59,60,43,210,211,LAS,BUR,223,3,13,0,N,0,114,0,0,0,96
106,2008,1,3,4,1409,1355,1513,1500,WN,1328,N396SW,64,65,50,13,14,LAS,BUR,223,2,12,0,N,0,,,,,
107,2008,1,3,4,1100,1050,1157,1155,WN,1586,N293,57,65,46,2,10,LAS,BUR,223,2,9,0,N,0,,,,,
108,2008,1,3,4,1306,1250,1406,1355,WN,1838,N509SW,60,65,47,11,16,LAS,BUR,223,2,11,0,N,0,,,,,
109,2008,1,3,4,1726,1630,1832,1740,WN,2284,N409WN,66,70,46,52,56,LAS,BUR,223,2,18,0,N,0,1,0,0,0,51
111,2008,1,3,4,1229,1220,1342,1325,WN,2874,N695SW,73,65,47,17,9,LAS,BUR,223,2,24,0,N,0,9,0,8,0,0
113,2008,1,3,4,908,845,1628,1610,WN,1774,N220WN,260,265,244,18,23,LAS,BWI,2106,6,10,0,N,0,18,0,0,0,0
114,2008,1,3,4,1817,1730,122,50,WN,2632,N784SW,245,260,230,32,47,LAS,BWI,2106,5,10,0,N,0,7,0,0,0,25
116,2008,1,3,4,956,945,1658,1645,WN,818,N244WN,242,240,213,13,11,LAS,CLE,1825,8,21,0,N,0,,,,,
117,2008,1,3,4,1849,1740,121,30,WN,564,N455WN,212,230,195,51,69,LAS,CMH,1772,2,15,0,N,0,10,0,0,0,41
118,2008,1,3,4,1210,1200,1905,1850,WN,991,N297WN,235,230,201,15,10,LAS,CMH,1772,6,28,0,N,0,10,0,5,0,0
120,2008,1,3,4,1047,1030,1328,1320,WN,157,N481WN,101,110,79,8,17,LAS,DEN,629,9,13,0,N,0,,,,,
121,2008,1,3,4,2232,2115,108,5,WN,632,N203WN,96,110,77,63,77,LAS,DEN,629,6,13,0,N,0,0,0,7,0,56
122,2008,1,3,4,1512,1315,1802,1610,WN,706,N491WN,110,115,88,112,117,LAS,DEN,629,8,14,0,N,0,0,0,0,0,112
123,2008,1,3,4,2025,1955,2301,2245,WN,908,N480WN,96,110,78,16,30,LAS,DEN,629,6,12,0,N,0,7,0,0,0,9
124,2008,1,3,4,1439,1425,1720,1720,WN,1582,N318SW,101,115,85,0,14,LAS,DEN,629,7,9,0,N,0,,,,,
125,2008,1,3,4,1627,1600,1916,1900,WN,2907,N647SW,109,120,80,16,27,LAS,DEN,629,8,21,0,N,0,2,0,0,0,14
126,2008,1,3,4,1745,1710,2017,1945,WN,2192,N313SW,92,95,78,32,35,LAS,ELP,584,2,12,0,N,0,10,0,0,0,22
127,2008,1,3,4,1049,1040,1320,1320,WN,2280,N352SW,91,100,73,0,9,LAS,ELP,584,3,15,0,N,0,,,,,
128,2008,1,3,4,1117,1050,1325,1325,WN,1636,N321SW,128,155,116,0,27,LAS,GEG,806,3,9,0,N,0,,,,,
129,2008,1,3,4,1725,1620,1940,1850,WN,2803,N660SW,135,150,116,50,65,LAS,GEG,806,4,15,0,N,0,50,0,0,0,0
130,2008,1,3,4,1824,1735,2303,2230,WN,719,N414WN,159,175,143,33,49,LAS,HOU,1235,3,13,0,N,0,12,0,0,0,21
131,2008,1,3,4,1150,1140,1644,1640,WN,1776,N408WN,174,180,147,4,10,LAS,HOU,1235,3,24,0,N,0,,,,,
132,2008,1,3,4,749,740,1227,1235,WN,3244,N475WN,158,175,146,-8,9,LAS,HOU,1235,3,9,0,N,0,,,,,
133,2008,1,3,4,2051,2010,134,55,WN,3746,N321SW,163,165,150,39,41,LAS,HOU,1235,4,9,0,N,0,17,0,0,0,22
134,2008,1,3,4,1555,1525,2307,2245,WN,1027,N230WN,252,260,232,22,30,LAS,IAD,2066,7,13,0,N,0,6,0,0,0,16
135,2008,1,3,4,2255,1820,509,55,WN,1924,N761RR,194,215,176,254,275,LAS,IND,1591,9,9,0,N,0,0,0,0,8,246
136,2008,1,3,4,1129,1050,1757,1725,WN,3920,N464WN,208,215,179,32,39,LAS,IND,1591,8,21,0,N,0,32,0,0,0,0
137,2008,1,3,4,1602,1510,2357,2255,WN,3144,N272WN,295,285,269,62,52,LAS,ISP,2283,4,22,0,N,0,13,0,10,0,39
138,2008,1,3,4,1738,1715,1838,1820,WN,82,N499WN,60,65,42,18,23,LAS,LAX,236,6,12,0,N,0,0,0,0,12,6
139,2008,1,3,4,2207,2150,2306,2255,WN,135,N244WN,59,65,40,11,17,LAS,LAX,236,7,12,0,N,0,,,,,
140,2008,1,3,4,1851,1825,2004,1930,WN,317,N335SW,73,65,41,34,26,LAS,LAX,236,16,16,0,N,0,18,0,8,0,8
141,2008,1,3,4,701,645,802,745,WN,337,N488WN,61,60,42,17,16,LAS,LAX,236,7,12,0,N,0,16,0,1,0,0
142,2008,1,3,4,1556,1455,1704,1600,WN,354,N496WN,68,65,41,64,61,LAS,LAX,236,9,18,0,N,0,61,0,3,0,0
145,2008,1,3,4,1540,1525,1648,1630,WN,1061,N422WN,68,65,47,18,15,LAS,LAX,236,5,16,0,N,0,10,0,3,0,5
147,2008,1,3,4,1228,1200,1340,1310,WN,1928,N792SW,72,70,43,30,28,LAS,LAX,236,7,22,0,N,0,0,0,2,0,28
148,2008,1,3,4,2047,2005,2209,2115,WN,2367,N352SW,82,70,45,54,42,LAS,LAX,236,7,30,0,N,0,15,0,12,0,27
149,2008,1,3,4,2158,2120,2303,2225,WN,2896,N335SW,65,65,44,38,38,LAS,LAX,236,11,10,0,N,0,13,0,0,0,25
152,2008,1,3,4,1147,1100,1541,1500,WN,2382,N404WN,114,120,90,41,47,LAS,LBB,775,4,20,0,N,0,25,0,0,0,16
153,2008,1,3,4,859,850,1343,1345,WN,565,N787SA,164,175,148,-2,9,LAS,LIT,1295,4,12,0,N,0,,,,,
154,2008,1,3,4,1140,1110,1537,1510,WN,43,N617SW,117,120,95,27,30,LAS,MAF,796,2,20,0,N,0,27,0,0,0,0
155,2008,1,3,4,1226,1210,1721,1700,WN,213,N302SW,175,170,139,21,16,LAS,MCI,1140,4,32,0,N,0,1,0,5,0,15
156,2008,1,3,4,2118,2005,154,50,WN,411,N763SW,156,165,131,64,73,LAS,MCI,1140,7,18,0,N,0,14,0,0,0,50
157,2008,1,3,4,2003,1905,26,2350,WN,1004,N676SW,143,165,130,36,58,LAS,MCI,1140,5,8,0,N,0,4,0,0,0,32
158,2008,1,3,4,1622,1510,2059,2000,WN,1405,N775SW,157,170,130,59,72,LAS,MCI,1140,4,23,0,N,0,59,0,0,0,0
160,2008,1,3,4,1003,940,1441,1430,WN,3068,N449WN,158,170,136,11,23,LAS,MCI,1140,5,17,0,N,0,,,,,
161,2008,1,3,4,1319,1300,2033,2025,WN,380,N444WN,254,265,234,8,19,LAS,MCO,2039,6,14,0,N,0,,,,,
162,2008,1,3,4,1506,1500,2122,2030,WN,74,N764SW,256,210,177,52,6,LAS,MDW,1521,62,17,0,N,0,6,0,46,0,0
165,2008,1,3,4,1424,1415,1941,1945,WN,396,N407WN,197,210,177,-4,9,LAS,MDW,1521,8,12,0,N,0,,,,,
166,2008,1,3,4,1211,1145,1750,1720,WN,693,N232WN,219,215,175,30,26,LAS,MDW,1521,23,21,0,N,0,0,0,4,0,26
167,2008,1,3,4,814,755,1334,1320,WN,823,N725SW,200,205,181,14,19,LAS,MDW,1521,6,13,0,N,0,,,,,
169,2008,1,3,4,1708,1700,2214,2230,WN,1865,N745SW,186,210,169,-16,8,LAS,MDW,1521,6,11,0,N,0,,,,,
170,2008,1,3,4,1919,1845,31,5,WN,2025,N740SW,192,200,171,26,34,LAS,MDW,1521,8,13,0,N,0,4,0,0,0,22
171,2008,1,3,4,1945,1815,52,2335,WN,2450,N405WN,187,200,168,77,90,LAS,MDW,1521,8,11,0,N,0,13,0,0,0,64
172,2008,1,3,4,2057,1930,202,50,WN,2794,N468WN,185,200,171,72,87,LAS,MDW,1521,7,7,0,N,0,60,0,0,0,12
173,2008,1,3,4,1354,1310,1907,1845,WN,3232,N201LV,193,215,177,22,44,LAS,MDW,1521,6,10,0,N,0,4,0,0,0,18
174,2008,1,3,4,1703,1645,33,35,WN,767,N222WN,270,290,257,-2,18,LAS,MHT,2356,4,9,0,N,0,,,,,
176,2008,1,3,4,1903,1825,5,2340,WN,3327,N282WN,182,195,166,25,38,LAS,MSY,1501,4,12,0,N,0,3,0,0,0,22
179,2008,1,3,4,1354,1345,1525,1520,WN,127,N784SW,91,95,74,5,9,LAS,OAK,407,4,13,0,N,0,,,,,
180,2008,1,3,4,1944,1740,2110,1915,WN,223,N223WN,86,95,72,115,124,LAS,OAK,407,5,9,0,N,0,21,0,0,0,94
181,2008,1,3,4,1251,1205,1425,1345,WN,237,N281WN,94,100,76,40,46,LAS,OAK,407,3,15,0,N,0,2,0,0,0,38
182,2008,1,3,4,1548,1505,1728,1635,WN,280,N460WN,100,90,78,53,43,LAS,OAK,407,4,18,0,N,0,14,0,10,0,29
184,2008,1,3,4,2216,2125,2348,2255,WN,900,N679AA,92,90,78,53,51,LAS,OAK,407,4,10,0,N,0,11,0,2,0,40
185,2008,1,3,4,2010,1900,2203,2030,WN,962,N378SW,113,90,77,93,70,LAS,OAK,407,28,8,0,N,0,45,0,23,0,25
186,2008,1,3,4,1433,1420,1608,1555,WN,1011,N248WN,95,95,79,13,13,LAS,OAK,407,4,12,0,N,0,,,,,
187,2008,1,3,4,935,925,1106,1055,WN,1258,N774SW,91,90,71,11,10,LAS,OAK,407,3,17,0,N,0,,,,,
189,2008,1,3,4,2035,2020,2209,2150,WN,3135,N695SW,94,90,81,19,15,LAS,OAK,407,3,10,0,N,0,15,0,4,0,0
191,2008,1,3,4,1152,1145,1616,1605,WN,86,N627SW,144,140,116,11,7,LAS,OKC,987,4,24,0,N,0,,,,,
192,2008,1,3,4,1435,1315,1859,1755,WN,479,N622SW,144,160,132,64,80,LAS,OMA,1099,3,9,0,N,0,38,0,0,0,26
193,2008,1,3,4,2049,1920,106,2355,WN,875,N217JC,137,155,125,71,89,LAS,OMA,1099,2,10,0,N,0,32,0,0,0,39
196,2008,1,3,4,2015,1945,2101,2040,WN,725,N259WN,46,55,34,21,30,LAS,ONT,197,4,8,0,N,0,3,0,0,0,18
199,2008,1,3,4,1102,1030,1152,1125,WN,906,N301SW,50,55,36,27,32,LAS,ONT,197,3,11,0,N,0,27,0,0,0,0
200,2008,1,3,4,2218,2120,2308,2210,WN,1493,N356SW,50,50,36,58,58,LAS,ONT,197,5,9,0,N,0,0,0,20,0,38
397279,2008,1,19,6,1219,1205,1325,1315,MQ,3797,N684JW,66,70,45,10,14,DFW,HOU,247,2,19,0,N,0,,,,,
397281,2008,1,21,1,1217,1205,1317,1315,MQ,3797,N686AE,60,70,46,2,12,DFW,HOU,247,2,12,0,N,0,,,,,
397282,2008,1,22,2,1218,1205,1331,1315,MQ,3797,N942AE,73,70,54,16,13,DFW,HOU,247,2,17,0,N,0,0,0,3,0,13
397286,2008,1,26,6,1234,1205,1336,1315,MQ,3797,N633AE,62,70,43,21,29,DFW,HOU,247,2,17,0,N,0,13,0,0,0,8
397287,2008,1,27,7,1452,1205,1553,1315,MQ,3797,N939AE,61,70,46,158,167,DFW,HOU,247,6,9,0,N,0,0,30,0,0,128
397289,2008,1,29,2,1233,1205,1353,1315,MQ,3797,N667GB,80,70,51,38,28,DFW,HOU,247,5,24,0,N,0,0,5,10,0,23
397292,2008,1,1,2,1352,1340,1458,1450,MQ,3798,N681AE,66,70,48,8,12,HOU,DFW,247,7,11,0,N,0,,,,,
397297,2008,1,6,7,1346,1340,1456,1450,MQ,3798,N933JN,70,70,47,6,6,HOU,DFW,247,11,12,0,N,0,,,,,
397299,2008,1,8,2,1359,1340,1513,1450,MQ,3798,N699AE,74,70,59,23,19,HOU,DFW,247,4,11,0,N,0,0,0,4,0,19
397304,2008,1,13,7,1348,1340,1452,1450,MQ,3798,N699AE,64,70,44,2,8,HOU,DFW,247,7,13,0,N,0,,,,,
397308,2008,1,17,4,1411,1340,1516,1450,MQ,3798,N928AE,65,70,44,26,31,HOU,DFW,247,11,10,0,N,0,0,0,0,0,26
397309,2008,1,18,5,1533,1340,1641,1450,MQ,3798,N633AE,68,70,53,111,113,HOU,DFW,247,5,10,0,N,0,4,0,0,0,107
397310,2008,1,19,6,1348,1340,1450,1450,MQ,3798,N684JW,62,70,42,0,8,HOU,DFW,247,9,11,0,N,0,,,,,
397313,2008,1,22,2,1355,1340,1502,1450,MQ,3798,N942AE,67,70,45,12,15,HOU,DFW,247,11,11,0,N,0,,,,,
397317,2008,1,26,6,1406,1340,1506,1450,MQ,3798,N633AE,60,70,43,16,26,HOU,DFW,247,6,11,0,N,0,0,3,0,0,13
397318,2008,1,27,7,1624,1340,1730,1450,MQ,3798,N939AE,66,70,46,160,164,HOU,DFW,247,7,13,0,N,0,0,6,0,0,154
397320,2008,1,29,2,1422,1340,1537,1450,MQ,3798,N667GB,75,70,56,47,42,HOU,DFW,247,10,9,0,N,0,0,0,9,0,38
397322,2008,1,31,4,1439,1340,1554,1450,MQ,3798,N679AE,75,70,51,64,59,HOU,DFW,247,9,15,0,N,0,0,49,5,0,10
397326,2008,1,26,6,1316,915,1615,1225,MQ,3799,N830AE,119,130,98,230,241,DFW,LEX,785,3,18,0,N,0,65,0,0,0,165
397328,2008,1,28,1,929,915,1234,1225,MQ,3799,N804AE,125,130,103,9,14,DFW,LEX,785,4,18,0,N,0,,,,,
397329,2008,1,29,2,931,915,1219,1225,MQ,3799,N808AE,108,130,96,-6,16,DFW,LEX,785,3,9,0,N,0,,,,,
397334,2008,1,3,4,1109,1055,1334,1335,MQ,3802,N819AE,145,160,126,-1,14,MKE,DFW,853,6,13,0,N,0,,,,,
397339,2008,1,8,2,1113,1055,1418,1335,MQ,3802,N803AE,185,160,155,43,18,MKE,DFW,853,14,16,0,N,0,15,0,25,0,3
397357,2008,1,26,6,1109,1055,1352,1335,MQ,3802,N808AE,163,160,136,17,14,MKE,DFW,853,9,18,0,N,0,0,0,3,0,14
397361,2008,1,30,3,1101,1055,1332,1335,MQ,3802,N847AE,151,160,140,-3,6,MKE,DFW,853,4,7,0,N,0,,,,,
397363,2008,1,1,2,817,810,1023,1030,MQ,3803,N817AE,126,140,109,-7,7,DFW,MKE,853,4,13,0,N,0,,,,,
397370,2008,1,8,2,822,810,1033,1030,MQ,3803,N803AE,131,140,106,3,12,DFW,MKE,853,6,19,0,N,0,,,,,
397379,2008,1,17,4,840,810,1038,1030,MQ,3803,N844AE,118,140,102,8,30,DFW,MKE,853,5,11,0,N,0,,,,,
397394,2008,1,1,2,1519,1510,1723,1720,MQ,3806,N660CL,124,130,108,3,9,EVV,DFW,642,8,8,0,N,0,,,,,
397395,2008,1,2,3,1636,1510,1821,1720,MQ,3806,N820AE,105,130,93,61,86,EVV,DFW,642,7,5,0,N,0,0,0,0,0,61
397401,2008,1,8,2,1518,1510,1736,1720,MQ,3806,N805AE,138,130,110,16,8,EVV,DFW,642,17,11,0,N,0,0,0,8,0,8
397405,2008,1,12,6,1524,1510,1718,1720,MQ,3806,N803AE,114,130,103,-2,14,EVV,DFW,642,6,5,0,N,0,,,,,
397410,2008,1,17,4,1530,1510,1801,1720,MQ,3806,N830AE,151,130,122,41,20,EVV,DFW,642,22,7,0,N,0,0,0,25,0,16
397415,2008,1,22,2,1553,1510,1817,1720,MQ,3806,N932AE,144,130,125,57,43,EVV,DFW,642,11,8,0,N,0,0,0,14,0,43
911654,2008,2,21,4,1800,1705,2016,1919,EV,4232,N925EV,76,74,48,57,55,MOB,ATL,302,14,14,0,N,0,0,55,2,0,0
911655,2008,2,22,5,1902,1705,2115,1919,EV,4232,N930EV,73,74,51,116,117,MOB,ATL,302,13,9,0,N,0,0,82,34,0,0
911657,2008,2,24,7,1717,1705,1939,1919,EV,4232,N843AS,82,74,54,20,12,MOB,ATL,302,16,12,0,N,0,12,0,8,0,0
911659,2008,2,26,2,1718,1705,1926,1919,EV,4232,N873AS,68,74,55,7,13,MOB,ATL,302,6,7,0,N,0,,,,,
911668,2008,2,8,5,1902,1845,2115,2100,EV,4233,N390CA,133,135,106,15,17,ATL,ALB,852,4,23,0,N,0,0,0,0,0,15
911671,2008,2,13,3,1943,1845,2142,2100,EV,4233,N708EV,119,135,104,42,58,ATL,ALB,852,4,11,0,N,0,42,0,0,0,0
911672,2008,2,15,5,1009,957,1159,1157,EV,4233,N753EV,110,120,91,2,12,ATL,BUF,712,3,16,0,N,0,,,,,
911675,2008,2,1,5,1540,1459,1836,1754,EV,4234,N919EV,116,115,91,42,41,MLI,ATL,633,10,15,0,N,0,41,0,1,0,0
911676,2008,2,2,6,1508,1459,1754,1754,EV,4234,N870AS,106,115,93,0,9,MLI,ATL,633,6,7,0,N,0,,,,,
911679,2008,2,5,2,1517,1459,1809,1754,EV,4234,N830AS,112,115,94,15,18,MLI,ATL,633,5,13,0,N,0,15,0,0,0,0
911681,2008,2,7,4,1508,1459,1810,1754,EV,4234,N835AS,122,115,105,16,9,MLI,ATL,633,8,9,0,N,0,9,0,7,0,0
911684,2008,2,10,7,1615,1459,1855,1754,EV,4234,N937EV,100,115,80,61,76,MLI,ATL,633,10,10,0,N,0,61,0,0,0,0
911685,2008,2,11,1,1516,1459,1803,1754,EV,4234,N870AS,107,115,89,9,17,MLI,ATL,633,10,8,0,N,0,,,,,
911687,2008,2,13,3,1609,1459,1859,1754,EV,4234,N906EV,110,115,90,65,70,MLI,ATL,633,7,13,0,N,0,65,0,0,0,0
911690,2008,2,17,7,1833,1457,2203,1752,EV,4234,N861AS,150,115,118,251,216,MLI,ATL,633,14,18,0,N,0,0,0,251,0,0
911691,2008,2,18,1,1513,1457,1802,1752,EV,4234,N906EV,109,115,92,10,16,MLI,ATL,633,6,11,0,N,0,,,,,
911692,2008,2,19,2,1505,1457,1749,1752,EV,4234,N836AS,104,115,86,-3,8,MLI,ATL,633,6,12,0,N,0,,,,,
